Biostat 212a Homework 4
…
tree_fit %>%
  collect_metrics() %>%
  print(width = Inf) %>%
  filter(.metric == "rmse") %>%
  mutate(tree_depth = as.factor(tree_depth)) %>%
  ggplot(mapping = aes(x = cost_complexity, y = mean, color = tree_depth)) +
  geom_point() + 
  geom_line() + 
  labs(x = "cost_complexity", y = "CV mse")

# A tibble: 1,000 × 8
   cost_complexity tree_depth .metric .estimator  mean     n std_err
             <dbl>      <int> <chr>   <chr>      <dbl> <int>   <dbl>
 1        1   e-10          1 rmse    standard   7.48      5  0.0956
 2        1   e-10          1 rsq     standard   0.348     5  0.0432
 3        1.23e-10          1 rmse    standard   7.48      5  0.0956
 4        1.23e-10          1 rsq     standard   0.348     5  0.0432
 5        1.52e-10          1 rmse    standard   7.48      5  0.0956
 6        1.52e-10          1 rsq     standard   0.348     5  0.0432
 7        1.87e-10          1 rmse    standard   7.48      5  0.0956
 8        1.87e-10          1 rsq     standard   0.348     5  0.0432
 9        2.31e-10          1 rmse    standard   7.48      5  0.0956
10        2.31e-10          1 rsq     standard   0.348     5  0.0432
   .config               
   <chr>                 
 1 Preprocessor1_Model001
 2 Preprocessor1_Model001
 3 Preprocessor1_Model002
 4 Preprocessor1_Model002
 5 Preprocessor1_Model003
 6 Preprocessor1_Model003
 7 Preprocessor1_Model004
 8 Preprocessor1_Model004
 9 Preprocessor1_Model005
10 Preprocessor1_Model005
# ℹ 990 more rows
…
rf_fit %>%
  collect_metrics() %>%
  print(width = Inf) %>%
  filter(.metric == "rmse") %>%
  mutate(mtry = as.factor(mtry)) %>%
  ggplot(mapping = aes(x = trees, y = mean, color = mtry)) +
  # geom_point() + 
  geom_line() + 
  labs(x = "Num. of Trees", y = "CV mse")

# A tibble: 30 × 8
    mtry trees .metric .estimator  mean     n std_err .config              
   <int> <int> <chr>   <chr>      <dbl> <int>   <dbl> <chr>                
 1     1   100 rmse    standard   4.61      5  0.192  Preprocessor1_Model01
 2     1   100 rsq     standard   0.791     5  0.0351 Preprocessor1_Model01
 3     1   200 rmse    standard   4.69      5  0.146  Preprocessor1_Model02
 4     1   200 rsq     standard   0.781     5  0.0351 Preprocessor1_Model02
 5     1   300 rmse    standard   4.60      5  0.171  Preprocessor1_Model03
 6     1   300 rsq     standard   0.794     5  0.0336 Preprocessor1_Model03
 7     2   100 rmse    standard   3.73      5  0.103  Preprocessor1_Model04
 8     2   100 rsq     standard   0.847     5  0.0273 Preprocessor1_Model04
 9     2   200 rmse    standard   3.70      5  0.157  Preprocessor1_Model05
10     2   200 rsq     standard   0.852     5  0.0318 Preprocessor1_Model05
# ℹ 20 more rows
…
Main Arguments:
  trees = 1000
  tree_depth = tune()
  learn_rate = tune()

Computational engine: xgboost 

param_grid <- grid_regular(
  tree_depth(range = c(1L, 4L)),
  learn_rate(range = c(-3, -0.5), trans = log10_trans()),
  levels = c(4, 10)
  )
param_grid

# A tibble: 40 × 2
   tree_depth learn_rate
        <int>      <dbl>
 1          1    0.001  
 2          2    0.001  
 3          3    0.001  
 4          4    0.001  
 5          1    0.00190
 6          2    0.00190
 7          3    0.00190
 8          4    0.00190
 9          1    0.00359
10          2    0.00359
# ℹ 30 more rows
…
gb_fit %>%
  collect_metrics() %>%
  print(width = Inf) %>%
  filter(.metric == "rmse") %>%
  ggplot(mapping = aes(x = learn_rate, y = mean, color = factor(tree_depth))) +
  geom_point() +
  geom_line() +
  labs(x = "Learning Rate", y = "CV AUC") +
  scale_x_log10()

# A tibble: 80 × 8
   tree_depth learn_rate .metric .estimator   mean     n std_err
        <int>      <dbl> <chr>   <chr>       <dbl> <int>   <dbl>
 1          1    0.001   rmse    standard   10.6       5  0.352 
 2          1    0.001   rsq     standard    0.688     5  0.0552
 3          2    0.001   rmse    standard   10.2       5  0.288 
 4          2    0.001   rsq     standard    0.747     5  0.0595
 5          3    0.001   rmse    standard   10.0       5  0.287 
 6          3    0.001   rsq     standard    0.759     5  0.0621
 7          4    0.001   rmse    standard   10.1       5  0.294 
 8          4    0.001   rsq     standard    0.752     5  0.0609
 9          1    0.00190 rmse    standard    6.47      5  0.254 
10          1    0.00190 rsq     standard    0.758     5  0.0472
   .config              
   <chr>                
 1 Preprocessor1_Model01
 2 Preprocessor1_Model01
 3 Preprocessor1_Model02
 4 Preprocessor1_Model02
 5 Preprocessor1_Model03
 6 Preprocessor1_Model03
 7 Preprocessor1_Model04
 8 Preprocessor1_Model04
 9 Preprocessor1_Model05
10 Preprocessor1_Model05
# ℹ 70 more rows
…
tree_fit %>%
  collect_metrics() %>%
  print(width = Inf) %>%
  filter(.metric == "roc_auc") %>%
  mutate(tree_depth = as.factor(tree_depth)) %>%
  ggplot(mapping = aes(x = cost_complexity, y = mean, color = tree_depth)) +
  geom_point() + 
  geom_line() + 
  labs(x = "cost_complexity", y = "CV ROC AUC", color = "tree_depth") 

# A tibble: 1,000 × 8
   cost_complexity tree_depth .metric  .estimator  mean     n std_err
             <dbl>      <int> <chr>    <chr>      <dbl> <int>   <dbl>
 1        1   e-10          1 accuracy binary     0.575     5  0.0548
 2        1   e-10          1 roc_auc  binary     0.578     5  0.0216
 3        1.23e-10          1 accuracy binary     0.575     5  0.0548
 4        1.23e-10          1 roc_auc  binary     0.578     5  0.0216
 5        1.52e-10          1 accuracy binary     0.575     5  0.0548
 6        1.52e-10          1 roc_auc  binary     0.578     5  0.0216
 7        1.87e-10          1 accuracy binary     0.575     5  0.0548
 8        1.87e-10          1 roc_auc  binary     0.578     5  0.0216
 9        2.31e-10          1 accuracy binary     0.575     5  0.0548
10        2.31e-10          1 roc_auc  binary     0.578     5  0.0216
   .config               
   <chr>                 
 1 Preprocessor1_Model001
 2 Preprocessor1_Model001
 3 Preprocessor1_Model002
 4 Preprocessor1_Model002
 5 Preprocessor1_Model003
 6 Preprocessor1_Model003
 7 Preprocessor1_Model004
 8 Preprocessor1_Model004
 9 Preprocessor1_Model005
10 Preprocessor1_Model005
# ℹ 990 more rows
…
rf_fit %>%
  collect_metrics() %>%
  print(width = Inf) %>%
  filter(.metric == "roc_auc") %>%
  mutate(mtry = as.factor(mtry)) %>%
  ggplot(mapping = aes(x = trees, y = mean, color = mtry)) +
  # geom_point() + 
  geom_line() + 
  labs(x = "Num. of Trees", y = "CV AUC")

# A tibble: 30 × 8
    mtry trees .metric  .estimator  mean     n std_err .config              
   <int> <int> <chr>    <chr>      <dbl> <int>   <dbl> <chr>                
 1     1   100 accuracy binary     0.715     5  0.0367 Preprocessor1_Model01
 2     1   100 roc_auc  binary     0.798     5  0.0164 Preprocessor1_Model01
 3     1   200 accuracy binary     0.695     5  0.0521 Preprocessor1_Model02
 4     1   200 roc_auc  binary     0.789     5  0.0217 Preprocessor1_Model02
 5     1   300 accuracy binary     0.69      5  0.0322 Preprocessor1_Model03
 6     1   300 roc_auc  binary     0.799     5  0.0254 Preprocessor1_Model03
 7     2   100 accuracy binary     0.745     5  0.0184 Preprocessor1_Model04
 8     2   100 roc_auc  binary     0.812     5  0.0394 Preprocessor1_Model04
 9     2   200 accuracy binary     0.725     5  0.0209 Preprocessor1_Model05
10     2   200 roc_auc  binary     0.826     5  0.0298 Preprocessor1_Model05
# ℹ 20 more rows
…
Main Arguments:
  trees = 1000
  tree_depth = tune()
  learn_rate = tune()

Computational engine: xgboost 

param_grid <- grid_regular(
  tree_depth(range = c(1L, 3L)),
  learn_rate(range = c(-5, 2), trans = log10_trans()),
  levels = c(3, 10)
  )
param_grid

# A tibble: 30 × 2
   tree_depth learn_rate
        <int>      <dbl>
 1          1  0.00001  
 2          2  0.00001  
 3          3  0.00001  
 4          1  0.0000599
 5          2  0.0000599
 6          3  0.0000599
 7          1  0.000359 
 8          2  0.000359 
 9          3  0.000359 
10          1  0.00215  
# ℹ 20 more rows
…
gb_fit %>%
  collect_metrics() %>%
  print(width = Inf) %>%
  filter(.metric == "roc_auc") %>%
  mutate(tree_depth = as.factor(tree_depth)) %>%
  ggplot(mapping = aes(x = learn_rate, y = mean, color = tree_depth)) +
  geom_point() +
  geom_line() +
  labs(x = "Learning Rate", y = "CV AUC") +
  scale_x_log10()

# A tibble: 60 × 8
   tree_depth learn_rate .metric  .estimator  mean     n std_err
        <int>      <dbl> <chr>    <chr>      <dbl> <int>   <dbl>
 1          1  0.00001   accuracy binary     0.585     5  0.0589
 2          1  0.00001   roc_auc  binary     0.593     5  0.0330
 3          2  0.00001   accuracy binary     0.655     5  0.0382
 4          2  0.00001   roc_auc  binary     0.687     5  0.0593
 5          3  0.00001   accuracy binary     0.67      5  0.0339
 6          3  0.00001   roc_auc  binary     0.702     5  0.0509
 7          1  0.0000599 accuracy binary     0.585     5  0.0589
 8          1  0.0000599 roc_auc  binary     0.593     5  0.0330
 9          2  0.0000599 accuracy binary     0.635     5  0.0437
10          2  0.0000599 roc_auc  binary     0.695     5  0.0613
   .config              
   <chr>                
 1 Preprocessor1_Model01
 2 Preprocessor1_Model01
 3 Preprocessor1_Model02
 4 Preprocessor1_Model02
 5 Preprocessor1_Model03
 6 Preprocessor1_Model03
 7 Preprocessor1_Model04
 8 Preprocessor1_Model04
 9 Preprocessor1_Model05
10 Preprocessor1_Model05
# ℹ 50 more rows
…
