Biostat 212A Homework 3
…
fit_ridge <- ridge_wf %>% fit(data = Boston_train)

broom:::tidy.glmnet(fit_ridge$fit$fit$fit) %>%
  print(width = Inf) %>%
  filter(term != "(Intercept)") %>%
  ggplot() +
  geom_line(mapping = aes(x = lambda, y = estimate, color = term)) + 
  scale_x_log10() +
  labs(
    x = quote(lambda),
    y = "Standardized Coefficients",
    title = "Ridge solution path for Boston data"
  )

# A tibble: 606 × 5
   term         step estimate  lambda dev.ratio
   <chr>       <dbl>    <dbl>   <dbl>     <dbl>
 1 (Intercept)     1     1.75 100000   0.000137
 2 (Intercept)     2     1.75  83022.  0.000165
 3 (Intercept)     3     1.75  68926.  0.000198
 4 (Intercept)     4     1.75  57224.  0.000239
 5 (Intercept)     5     1.75  47508.  0.000287
 6 (Intercept)     6     1.75  39442.  0.000346
 7 (Intercept)     7     1.75  32745.  0.000417
 8 (Intercept)     8     1.75  27186.  0.000502
 9 (Intercept)     9     1.75  22570.  0.000605
10 (Intercept)    10     1.75  18738.  0.000728
# ℹ 596 more rows
…
fit_lasso <- lasso_wf %>% fit(data = Boston_train)

broom:::tidy.glmnet(fit_lasso$fit$fit$fit) %>%
  print(width = Inf) %>%
  filter(term != "(Intercept)") %>%
  ggplot() +
  geom_line(mapping = aes(x = lambda, y = estimate, color = term)) + 
  scale_x_log10() +
  labs(
    x = quote(lambda), 
    y = "Standardized Coefficients",
    title = "Lasso solution path for Boston data")

# A tibble: 286 × 5
   term         step estimate lambda dev.ratio
   <chr>       <dbl>    <dbl>  <dbl>     <dbl>
 1 (Intercept)     1     1.75 10000          0
 2 (Intercept)     2     1.75  8498.         0
 3 (Intercept)     3     1.75  7221.         0
 4 (Intercept)     4     1.75  6136.         0
 5 (Intercept)     5     1.75  5214.         0
 6 (Intercept)     6     1.75  4431.         0
 7 (Intercept)     7     1.75  3765.         0
 8 (Intercept)     8     1.75  3199.         0
 9 (Intercept)     9     1.75  2719.         0
10 (Intercept)    10     1.75  2310.         0
# ℹ 276 more rows
…
